{
    "type": "app",
    "name": "service",
    "cdnUrl": "https://cdn.appointy.com/master",
    "graphqlUrl": "https://dev-waqt.appointy.com/graphql",
    "uploadUrl": "https://dev-waqt.appointy.com/images",
    "authUrl": "https://dev-waqt.appointy.com/loginconsent",
    "loginUrl": "https://dev-waqt.appointy.com/oidc/sign-in",
    "logoutUrl": "https://dev-waqt.appointy.com/oidc/sign-out",
    "authorEmail": "anuj.g@appointy.com",
    "authorName": "Anuj ",
    "packageName": "@saastack/relay-practice",
    "graphql": true,
    "pluralName": "Services",
    "singularName": "Service",
    "hook": false,
    "pagination": false,
    "search": false,
    "defaultParent": "Location",
    "switcher": "loc",
    "pubsub": true,
    "company": "Appointy"
}
